CLAV Data Analysis
…
Repeated trials in some subjects

Since we notice some oddities in the data, we first look at which condition and how many trials each participant experienced.

#count the number of subjects and their counterbalance conditions
subs <- 
  df %>% 
  group_by(subjectID, list_number) %>%
  count

subs

## # A tibble: 58 x 3
## # Groups:   subjectID, list_number [58]
##    subjectID list_number     n
##    <fct>           <dbl> <int>
##  1 1                   1    24
##  2 3                   1    24
##  3 4                   1    24
##  4 6                   2    24
##  5 7                   1    24
##  6 9                   4    24
##  7 10                  3    25
##  8 11                  4    24
##  9 12                  2    25
## 10 15                  6    25
## #  with 48 more rows
…
